code,name,region
41,Huila,Región_1
73,Tolima,Región_1
19,Cauca,Región_2
76,Valle de Cauca,Región_2
18,Caquetá,Región_3
52,Nariño,Región_3
86,Putumayo,Región_3
85,Casanare,Región_4
15,Boyacá,Región_4
50,Meta,Región_4
13,Bolívar,Región_5
23,Córdoba,Región_5
70,Sucre,Región_5
08,Atlántico,Región_6
44,Guajira,Región_6
47,Magdalena,Región_6
88,San Andrés,Región_6
81,Arauca,Región_7
20,Cesar,Región_7
54,Norte de Santander,Región_7
68,Santander,Región_7
05,Antioquia,Región_8
27,Choco,Región_8
17,Caldas,Región_9
63,Quindío,Región_9
66,Risaralda,Región_9
91,Amazonas,Región_10
11,Bogotá,Región_10
25,Cundinamarca,Región_10
94,Guainía,Región_10
95,Guaviare,Región_10
97,Vaupés,Región_10
99,Vichada,Región_10
